{
  "count": 60,
  "next": "http://127.0.0.1:8000/api/order/?page=2",
  "previous": null,
  "results": [
    {
      "id": 179,
      "user": 1,
      "created": "2018-05-22T13:50:05.232000Z",
      "invoice_number": "RET#1B05-178",
      "table": 2,
      "total_net": "270.00",
      "sub_total": "270.00",
      "balance": "0.00",
      "terminal": 1,
      "amount_paid": "0.00",
      "update_url": "http://127.0.0.1:8000/api/order/update-order/179/",
      "ordered_items": [
        {
          "id": 816,
          "counter": null,
          "kitchen": null,
          "sku": "shakel02",
          "quantity": 1,
          "unit_cost": "270.00",
          "total_cost": "270.00",
          "product_name": "Shakes ( Lemon)",
          "product_category": "Shakes",
          "tax": 0,
          "discount": "0.00"
        }
      ],
      "customer": null,
      "mobile": null,
      "customer_name": null,
      "payment_data": "[]",
      "status": "payment-pending",
      "total_tax": "0.00",
      "discount_amount": "0.00"
    },
    {
      "id": 178,
      "user": 1,
      "created": "2018-05-21T12:09:06.659000Z",
      "invoice_number": "RET#192B-177",
      "table": 3,
      "total_net": "2400.00",
      "sub_total": "2400.00",
      "balance": "0.00",
      "terminal": 1,
      "amount_paid": "0.00",
      "update_url": "http://127.0.0.1:8000/api/order/update-order/178/",
      "ordered_items": [
        {
          "id": 815,
          "counter": null,
          "kitchen": null,
          "sku": "wr1019950",
          "quantity": 1,
          "unit_cost": "2400.00",
          "total_cost": "2400.00",
          "product_name": "Wine ( 10Ltr,  ribena,  1950)",
          "product_category": "Wine",
          "tax": 0,
          "discount": "0.00"
        }
      ],
      "customer": null,
      "mobile": null,
      "customer_name": null,
      "payment_data": "[]",
      "status": "payment-pending",
      "total_tax": "0.00",
      "discount_amount": "0.00"
    },
    {
      "id": 175,
      "user": 1,
      "created": "2018-05-21T12:08:14.007000Z",
      "invoice_number": "RET#11E8-174",
      "table": 3,
      "total_net": "130.00",
      "sub_total": "130.00",
      "balance": "0.00",
      "terminal": 1,
      "amount_paid": "0.00",
      "update_url": "http://127.0.0.1:8000/api/order/update-order/175/",
      "ordered_items": [
        {
          "id": 814,
          "counter": null,
          "kitchen": null,
          "sku": "cc01",
          "quantity": 1,
          "unit_cost": "130.00",
          "total_cost": "130.00",
          "product_name": "Cigarrettes ( Cigar)",
          "product_category": "Cigarrettes",
          "tax": 0,
          "discount": "0.00"
        }
      ],
      "customer": null,
      "mobile": null,
      "customer_name": null,
      "payment_data": "[]",
      "status": "payment-pending",
      "total_tax": "0.00",
      "discount_amount": "0.00"
    }
  ]
}